Return information related to Mendelian Randomisation — mr • epigraphdb
…
# Use a different threshold
# \dontrun{
mr(exposure_trait = "Body mass index", pval_threshold = 1e-8)
#> # A tibble: 2,138 × 10
#>    exposure.id  exposure.trait  outcome.id outcome.trait    mr.b   mr.se mr.pval
#>    <chr>        <chr>           <chr>      <chr>           <dbl>   <dbl>   <dbl>
#>  1 ieu-a-974    Body mass index ebi-a-GCS… Fibrinogen lev… 0.193 0.00224       0
#>  2 ebi-a-GCST0… Body mass index ukb-b-2303 Body mass inde… 0.595 0.0153        0
#>  3 ieu-a-835    Body mass index ukb-b-180… Leg fat mass (… 0.608 0.0139        0
#>  4 ieu-a-835    Body mass index ukb-b-128… Arm fat percen… 0.526 0.0130        0
#>  5 ieu-a-835    Body mass index ieu-a-93   Overweight      1.67  0.0341        0
#>  6 ieu-a-835    Body mass index ieu-a-61   Waist circumfe… 0.824 0.0194        0
#>  7 ieu-a-835    Body mass index ieu-a-60   Waist circumfe… 0.820 0.0195        0
#>  8 ieu-a-2      Body mass index ukb-b-4650 Comparative bo… 0.439 0.00989       0
#>  9 ebi-a-GCST0… Body mass index ukb-b-201… Arm fat percen… 0.533 0.0104        0
#> 10 ieu-a-2      Body mass index ukb-b-2303 Body mass inde… 0.674 0.0178        0
#> # … with 2,128 more rows, and 3 more variables: mr.method <chr>,
#> #   mr.selection <chr>, mr.moescore <dbl>
…
