Return information related to the pQTL analysis — pqtl • epigraphdb
…
# Returns a data frame with SNP information, while searching for traits
# \dontrun{
pqtl(
  query = "Inflammatory bowel disease",
  rtype = "inst",
  searchflag = "traits"
)
#> # A tibble: 56 × 13
#>    rsID       expID outID outID_mrbase ea    nea   eaf_exp sample_exp sample_out
#>    <chr>      <chr> <chr> <chr>        <chr> <chr>   <dbl>      <dbl>      <dbl>
#>  1 rs11581607 IL23R Infl… 294          A     G      0.0669       3301      65642
#>  2 rs1801274  FCGR… Infl… 294          G     A      0.533        3301      65642
#>  3 rs4921484  IL12B Infl… 294          C     T      0.678        3301      65642
#>  4 rs11955347 C1QT… Infl… 294          A     G      0.472        3301      65642
#>  5 rs9858428  TXND… Infl… 294          T     G      0.110        3301      65642
#>  6 rs181209   IL27  Infl… 294          T     G      0.327        3301      65642
#>  7 rs10179654 IL1R… Infl… 294          G     T      0.521        3301      65642
#>  8 rs1260326  FST   Infl… 294          T     C      0.44         3394      65642
#>  9 rs4665972  IGFB… Infl… 294          C     T      0.555        6861      65642
#> 10 rs1260326  KLKB1 Infl… 294          T     C      0.448        6861      65642
#> # … with 46 more rows, and 4 more variables: author_exp <chr>,
#> #   author_out <chr>, trans_cis <chr>, pvalue <dbl>
# }

# Change a pvalue threshold (the default is 0.05)
# \dontrun{
pqtl(
  query = "Inflammatory bowel disease",
  rtype = "inst",
  pvalue = 1.0,
  searchflag = "traits"
)
#> # A tibble: 156 × 13
#>    rsID       expID outID outID_mrbase ea    nea   eaf_exp sample_exp sample_out
#>    <chr>      <chr> <chr> <chr>        <chr> <chr>   <dbl>      <dbl>      <dbl>
#>  1 rs11581607 IL23R Infl… 294          A     G      0.0669       3301      65642
#>  2 rs1801274  FCGR… Infl… 294          G     A      0.533        3301      65642
#>  3 rs4921484  IL12B Infl… 294          C     T      0.678        3301      65642
#>  4 rs11955347 C1QT… Infl… 294          A     G      0.472        3301      65642
#>  5 rs9858428  TXND… Infl… 294          T     G      0.110        3301      65642
#>  6 rs181209   IL27  Infl… 294          T     G      0.327        3301      65642
#>  7 rs10179654 IL1R… Infl… 294          G     T      0.521        3301      65642
#>  8 rs1260326  FST   Infl… 294          T     C      0.44         3394      65642
#>  9 rs4665972  IGFB… Infl… 294          C     T      0.555        6861      65642
#> 10 rs1260326  KLKB1 Infl… 294          T     C      0.448        6861      65642
#> # … with 146 more rows, and 4 more variables: author_exp <chr>,
#> #   author_out <chr>, trans_cis <chr>, pvalue <dbl>
…
