Return information related to Mendelian Randomisation — mr • epigraphdb
…
# Use a different threshold
mr(exposure = "Body mass index", pval_threshold = 1e-8)
#> No encoding supplied: defaulting to UTF-8.
#> # A tibble: 21 x 5
#>    exposure        outcome                 estimate     se        p
#>    <chr>           <chr>                      <dbl>  <dbl>    <dbl>
#>  1 Body mass index Body fat                   0.631 0.0339 1.53e-77
#>  2 Body mass index Waist circumference        0.871 0.0166 1.17e-62
#>  3 Body mass index Obesity class 1            2.53  0.0485 1.91e-62
#>  4 Body mass index Hip circumference          0.856 0.0186 2.24e-58
#>  5 Body mass index Waist-to-hip ratio         0.474 0.0121 5.11e-53
#>  6 Body mass index Obesity class 2            3.36  0.101  5.11e-48
#>  7 Body mass index Obesity class 3            3.97  0.277  1.38e-46
#>  8 Body mass index Childhood obesity          2.48  0.0878 2.44e-41
#>  9 Body mass index Fasting insulin            0.181 0.0111 8.10e-27
#> 10 Body mass index Extreme body mass index    3.90  0.273  5.71e-23
#> # … with 11 more rows
…
