Return information related to the pQTL analysis — pqtl • epigraphdb
…
# Returns a data frame with SNP information, while searching for traits
pqtl(query="Inflammatory bowel disease", rtype="inst", searchflag="traits")
#> # A tibble: 56 x 13
#>    rsID  expID outID outID_mrbase ea    nea   eaf_exp sample_exp sample_out
#>    <chr> <chr> <chr> <chr>        <chr> <chr>   <dbl>      <dbl>      <dbl>
#>  1 rs11… IL23R Infl… 294          A     G      0.0669       3301      65642
#>  2 rs18… FCGR… Infl… 294          G     A      0.533        3301      65642
#>  3 rs49… IL12B Infl… 294          C     T      0.678        3301      65642
#>  4 rs11… C1QT… Infl… 294          A     G      0.472        3301      65642
#>  5 rs98… TXND… Infl… 294          T     G      0.110        3301      65642
#>  6 rs18… IL27  Infl… 294          T     G      0.327        3301      65642
#>  7 rs10… IL1R… Infl… 294          G     T      0.521        3301      65642
#>  8 rs12… FST   Infl… 294          T     C      0.44         3394      65642
#>  9 rs46… IGFB… Infl… 294          C     T      0.555        6861      65642
#> 10 rs12… KLKB1 Infl… 294          T     C      0.448        6861      65642
#> # … with 46 more rows, and 4 more variables: author_exp <chr>,
#> #   author_out <chr>, trans_cis <chr>, pvalue <dbl>

# Change a pvalue threshold (the default is 0.05)
pqtl(query="Inflammatory bowel disease", rtype="inst", pvalue=1.0, searchflag="traits")
#> # A tibble: 156 x 13
#>    rsID  expID outID outID_mrbase ea    nea   eaf_exp sample_exp sample_out
#>    <chr> <chr> <chr> <chr>        <chr> <chr>   <dbl>      <dbl>      <dbl>
#>  1 rs11… IL23R Infl… 294          A     G      0.0669       3301      65642
#>  2 rs18… FCGR… Infl… 294          G     A      0.533        3301      65642
#>  3 rs49… IL12B Infl… 294          C     T      0.678        3301      65642
#>  4 rs11… C1QT… Infl… 294          A     G      0.472        3301      65642
#>  5 rs98… TXND… Infl… 294          T     G      0.110        3301      65642
#>  6 rs18… IL27  Infl… 294          T     G      0.327        3301      65642
#>  7 rs10… IL1R… Infl… 294          G     T      0.521        3301      65642
#>  8 rs12… FST   Infl… 294          T     C      0.44         3394      65642
#>  9 rs46… IGFB… Infl… 294          C     T      0.555        6861      65642
#> 10 rs12… KLKB1 Infl… 294          T     C      0.448        6861      65642
#> # … with 146 more rows, and 4 more variables: author_exp <chr>,
#> #   author_out <chr>, trans_cis <chr>, pvalue <dbl>
…
