Case study 3: Triangulating causal estimates with literature evidence • epigraphdb
…
Literature results

If we explore the full table in lit_df_filter, we can see lots of links between the two traits, pinned on specific overlapping terms.

We can summarise the SemMedDB semantic type and number of overlapping terms:

lit_counts <- lit_df_filter %>%
  count(`st.type`, `st.name`) %>%
  arrange(`st.type`, desc(`n`))
lit_counts %>% print(n = 30)
#> # A tibble: 39 x 3
#>    st.type   st.name                                  n
#>    <list>    <chr>                                <int>
#>  1 <chr [2]> ethanol                                656
#>  2 <chr [2]> Oral anticoagulants                     13
#>  3 <chr [2]> morphine                                12
#>  4 <chr [2]> Metoprolol                              10
#>  5 <chr [2]> propofol                                 4
#>  6 <chr [2]> Diazepam                                 2
#>  7 <chr [2]> Midazolam                                2
#>  8 <chr [2]> Apomorphine                              1
#>  9 <chr [2]> gamma hydroxybutyrate                    1
#> 10 <chr [2]> Luteolin                                 1
#> 11 <chr [2]> Thiopental                               1
#> 12 <chr [1]> agonists                                12
#> 13 <chr [1]> Antidepressive Agents                    8
#> 14 <chr [1]> Anti-Anxiety Agents                      4
#> 15 <chr [1]> Anesthetics                              3
#> 16 <chr [3]> leptin                                  24
#> 17 <chr [1]> Hormones                                 2
#> 18 <chr [2]> Glycoproteins                            3
#> 19 <chr [2]> Adrenergic Receptor                      2
#> 20 <chr [2]> apolipoprotein E-4                       2
#> 21 <chr [2]> PPAR gamma                               2
#> 22 <chr [2]> glutathione                              1
#> 23 <chr [4]> Somatotropin                             4
#> 24 <chr [2]> melatonin                               48
#> 25 <chr [2]> Medroxyprogesterone 17-Acetate           3
#> 26 <chr [3]> Cytochrome P450                         10
#> 27 <chr [3]> mitogen-activated protein kinase p38     4
#> 28 <chr [3]> AHSA1                                    2
#> 29 <chr [3]> AIMP2                                    2
#> 30 <chr [3]> CRK                                      2
#> # … with 9 more rows
…
      node = `st1.name`, assoc_node = `st.name`,
      label = `s1.predicate`
    ) %>%
    distinct(),
  # s2 subject - s2 predicate -> s2 object
  lit_detail %>%
    select(
      node = `st.name`, assoc_node = `st2.name`,
      label = `s2.predicate`
    ) %>%
    distinct()
) %>%
  distinct()
edges
#> # A tibble: 27 x 3
#>    node                     assoc_node             label
#>    <chr>                    <chr>                  <chr>
#>  1 SLEEP DURATION           Corticosterone         <NA> 
#>  2 SLEEP DURATION           ghrelin                <NA> 
#>  3 Sleep Apnea, Obstructive CORONARY HEART DISEASE <NA> 
#>  4 Phosphotransferases      CORONARY HEART DISEASE <NA> 
#>  5 JAK2                     CORONARY HEART DISEASE <NA> 
#>  6 Janus kinase 2           CORONARY HEART DISEASE <NA> 
#>  7 Insulin                  CORONARY HEART DISEASE <NA> 
#>  8 Adiponectin              CORONARY HEART DISEASE <NA> 
#>  9 Coronary heart disease   CORONARY HEART DISEASE <NA> 
#> 10 Proteome                 CORONARY HEART DISEASE <NA> 
#> # … with 17 more rows
…
pub_df <- bind_rows(
  lit_detail %>%
    select(gwas_id = `gwas.id`, semmed_triple_id = `s1.id`) %>%
    distinct(),
  lit_detail %>%
    select(gwas_id = `assoc_gwas.id`, semmed_triple_id = `s2.id`) %>%
    distinct()
) %>%
  transpose() %>%
  map_df(function(x) get_literature(x$gwas_id, x$semmed_triple_id))
pub_df
#> # A tibble: 51 x 3
#>    triple.id                       triple.name                           lit.id 
#>    <chr>                           <chr>                                 <chr>  
#>  1 C0010124:NEG_INTERACTS_WITH:C0… Corticosterone NEG_INTERACTS_WITH Le… 200515…
#>  2 C0010124:NEG_INTERACTS_WITH:C0… Corticosterone NEG_INTERACTS_WITH Le… 154755…
#>  3 C0911014:INHIBITS:C0299583      ghrelin INHIBITS Leptin               216598…
#>  4 C0911014:INHIBITS:C0299583      ghrelin INHIBITS Leptin               303645…
#>  5 C0911014:INHIBITS:C0299583      ghrelin INHIBITS Leptin               224737…
#>  6 C0911014:INHIBITS:C0299583      ghrelin INHIBITS Leptin               187190…
#>  7 C0911014:INHIBITS:C0299583      ghrelin INHIBITS Leptin               199557…
#>  8 C0299583:TREATS:C0520679        Leptin|LEP TREATS Sleep Apnea, Obstr… 104496…
#>  9 C0299583:TREATS:C0520679        Leptin|LEP TREATS Sleep Apnea, Obstr… 104496…
#> 10 C0299583:STIMULATES:C0031727    Leptin STIMULATES Phosphotransferases 159272…
#> # … with 41 more rows
…
