Case study 2: Identification of potential drug targets • epigraphdb
…
The thousands of genes are classified with regard to their druggability by Finan et al. 2017, where the Tier 1 category refers to approved drugs or those in clinical testing while for other tier categories the druggability confidence drops in order Tier 2 and then Tier 3.

Here we use the GET /gene/druggability/ppi endpoint to get data on the druggable alternative genes.**

get_drug_targets_ppi <- function(gene_name) {
  endpoint <- "/gene/druggability/ppi"
  params <- list(gene_name = gene_name)
  df <- query_epigraphdb(route = endpoint, params = params, mode = "table")
  df
}

ppi_df <- get_drug_targets_ppi(gene_name = GENE_NAME)
ppi_df
#> # A tibble: 42 x 5
#>    g1.name p1.uniprot_id p2.uniprot_id g2.name g2.druggability_tier
#>    <chr>   <chr>         <chr>         <chr>   <chr>               
#>  1 IL23R   Q5VWK5        P04141        CSF2    Tier 1              
#>  2 IL23R   Q5VWK5        P01562        IFNA1   Tier 1              
#>  3 IL23R   Q5VWK5        P01579        IFNG    Tier 1              
#>  4 IL23R   Q5VWK5        P22301        IL10    Tier 1              
#>  5 IL23R   Q5VWK5        P29460        IL12B   Tier 1              
#>  6 IL23R   Q5VWK5        P42701        IL12RB1 Tier 1              
#>  7 IL23R   Q5VWK5        P35225        IL13    Tier 1              
#>  8 IL23R   Q5VWK5        P40933        IL15    Tier 1              
#>  9 IL23R   Q5VWK5        Q16552        IL17A   Tier 1              
#> 10 IL23R   Q5VWK5        Q96PD4        IL17F   Tier 1              
#> # … with 32 more rows
…
literature_df <- extract_literature(
  outcome_trait = OUTCOME_TRAIT,
  gene_list = gene_list
)
literature_df
#> # A tibble: 49 x 7
#>    pubmed_id  gene.name lt.id  lt.name    lt.type st.predicate  literature_count
#>    <list>     <chr>     <chr>  <chr>      <list>  <chr>                    <int>
#>  1 <chr [1]>  IL23R     C0021… Inflammat… <chr [… PREDISPOSES                  1
#>  2 <chr [2]>  IL23R     C0021… Inflammat… <chr [… NEG_ASSOCIAT…                2
#>  3 <chr [1]>  IL23R     C0021… Inflammat… <chr [… CAUSES                       1
#>  4 <chr [21]> IL23R     C0021… Inflammat… <chr [… ASSOCIATED_W…               21
#>  5 <chr [1]>  IL23R     C0021… Inflammat… <chr [… AFFECTS                      1
#>  6 <chr [2]>  CSF2      C0021… Inflammat… <chr [… ASSOCIATED_W…                2
#>  7 <chr [1]>  CSF2      C0021… Inflammat… <chr [… AFFECTS                      1
#>  8 <chr [1]>  IFNA1     C0021… Inflammat… <chr [… TREATS                       1
#>  9 <chr [1]>  IFNA1     C0021… Inflammat… <chr [… PREVENTS                     1
#> 10 <chr [3]>  IFNA1     C0021… Inflammat… <chr [… ASSOCIATED_W…                3
#> # … with 39 more rows
…
