Case study 1: Distinguishing vertical and horizontal pleiotropy for SNP-protein associations • epigraphdb
…
  shared_pathway_df
}
shared_pathway_df <- get_shared_pathway(pathway_df)
n_pairs <- length(shared_pathway_df %>% filter(count > 0))
print(glue::glue("Num. shared_pathway pairs: {n_pairs}"))
#> Num. shared_pathway pairs: 6
shared_pathway_df %>% arrange(desc(count))
#> # A tibble: 72 x 6
#>    protein assoc_protein shared_pathway combination   count connected
#>    <chr>   <chr>         <list>         <chr>         <int> <lgl>    
#>  1 P05362  Q9UMF0        <chr [2]>      P05362,Q9UMF0     2 TRUE     
#>  2 Q9UMF0  P05362        <chr [2]>      P05362,Q9UMF0     2 TRUE     
#>  3 P05362  P29597        <chr [1]>      P05362,P29597     1 TRUE     
#>  4 P29597  P05362        <chr [1]>      P05362,P29597     1 TRUE     
#>  5 O75791  P05362        <chr [0]>      O75791,P05362     0 FALSE    
#>  6 O75791  P0C6A0        <NULL>         O75791,P0C6A0     0 FALSE    
#>  7 O75791  P29597        <chr [0]>      O75791,P29597     0 FALSE    
#>  8 O75791  Q13445        <NULL>         O75791,Q13445     0 FALSE    
#>  9 O75791  Q6P4F2        <chr [0]>      O75791,Q6P4F2     0 FALSE    
#> 10 O75791  Q8N9T8        <NULL>         O75791,Q8N9T8     0 FALSE    
#> # … with 62 more rows
…
  if (nrow(df) > 0) {
    res_df <- gene_protein_df %>%
      select(protein = uniprot_id) %>%
      left_join(df, by = c("protein"))
  } else {
    res_df <- gene_protein_df %>%
      select(protein = uniprot_id) %>%
      mutate(assoc_protein = NA_character_, path_size = NA_integer_)
  }
  res_df
}
ppi_df <- get_ppi(gene_protein_df, n_intermediate_proteins = PPI_N_INTERMEDIATE_PROTEINS)
ppi_df
#> # A tibble: 77 x 3
#>    protein assoc_protein path_size
#>    <chr>   <chr>             <int>
#>  1 Q13445  <NA>                 NA
#>  2 Q9BYD3  Q8N9T8                2
#>  3 Q9BYD3  Q8N9T8                2
#>  4 Q9BYD3  Q8N9T8                2
#>  5 Q9BYD3  Q8N9T8                2
#>  6 P29597  P05362                2
#>  7 P29597  P05362                2
#>  8 P29597  P05362                2
#>  9 P29597  P05362                2
#> 10 P29597  O75791                2
#> # … with 67 more rows
…
  shared_ppi_df
}

shared_ppi_df <- get_shared_ppi(ppi_df)
n_ppi_pairs <- shared_ppi_df %>%
  filter(shared_ppi) %>%
  nrow()
print(glue::glue("Num. shared_ppi pairs: {n_ppi_pairs}"))
#> Num. shared_ppi pairs: 10
shared_ppi_df
#> # A tibble: 72 x 5
#>    protein assoc_protein shared_ppi combination   connected
#>    <chr>   <chr>         <lgl>      <chr>         <lgl>    
#>  1 O75791  P05362        TRUE       O75791,P05362 TRUE     
#>  2 O75791  P0C6A0        FALSE      O75791,P0C6A0 FALSE    
#>  3 O75791  P29597        TRUE       O75791,P29597 TRUE     
#>  4 O75791  Q13445        FALSE      O75791,Q13445 FALSE    
#>  5 O75791  Q6P4F2        FALSE      O75791,Q6P4F2 FALSE    
#>  6 O75791  Q8N9T8        FALSE      O75791,Q8N9T8 FALSE    
#>  7 O75791  Q9BYD3        FALSE      O75791,Q9BYD3 FALSE    
#>  8 O75791  Q9UMF0        FALSE      O75791,Q9UMF0 FALSE    
#>  9 P05362  O75791        TRUE       O75791,P05362 TRUE     
#> 10 P05362  P0C6A0        FALSE      P05362,P0C6A0 FALSE    
#> # … with 62 more rows
…
