Getting started with EpiGraphDB in R • epigraphdb
…
# Look up all MR analyses where a trait was used as exposure
# and find all outcome traits with causal evidence from it.

trait1 <- "Body mass index" 
# NB: here, trait name has to specific (not fuzzy):
# use the exact trait name wording as in GWAS `node.trait` (previous example)

endpoint <- "/mr"

mr_df <- query_epigraphdb(route = endpoint, 
                          params = list(exposure_trait = trait1,
                                        pval_threshold = 5e-08 ),
                          mode = "table")
print(mr_df)
#> # A tibble: 633 x 10
#>    exposure.id exposure.trait outcome.id outcome.trait   mr.b   mr.se mr.pval
#>    <chr>       <chr>          <chr>      <chr>          <dbl>   <dbl>   <dbl>
#>  1 ieu-a-2     Body mass ind… ukb-a-74   Non-cancer i… 0.0346 0.00242       0
#>  2 ieu-a-2     Body mass ind… ukb-a-388  Hip circumfe… 0.724  0.0266        0
#>  3 ieu-a-2     Body mass ind… ukb-a-382  Waist circum… 0.656  0.0245        0
#>  4 ieu-a-2     Body mass ind… ukb-a-35   Comparative … 0.137  0.00791       0
#>  5 ieu-a-2     Body mass ind… ukb-a-34   Comparative … 0.366  0.0236        0
#>  6 ieu-a-2     Body mass ind… ukb-a-293  Trunk predic… 0.358  0.0167        0
#>  7 ieu-a-2     Body mass ind… ukb-a-292  Trunk fat-fr… 0.360  0.0177        0
#>  8 ieu-a-2     Body mass ind… ukb-a-291  Trunk fat ma… 0.737  0.0280        0
#>  9 ieu-a-2     Body mass ind… ukb-a-290  Trunk fat pe… 0.527  0.0275        0
#> 10 ieu-a-2     Body mass ind… ukb-a-289  Arm predicte… 0.416  0.0177        0
#> # … with 623 more rows, and 3 more variables: mr.method <chr>,
#> #   mr.selection <chr>, mr.moescore <dbl>
…
Next, we can check all available MR analyses for an outcome trait of interest.

# Look up all MR for a specified outcome trait
# and find all exposure traits with causal evidence on it.

trait2 <- "Waist circumference"

endpoint <- "/mr"

mr_df <- query_epigraphdb(route = endpoint, 
                          params = list(outcome_trait = trait2,
                                        pval_threshold = 5e-08),
                          mode = "table")
print(mr_df)
#> # A tibble: 842 x 10
#>    exposure.id exposure.trait outcome.id outcome.trait     mr.b   mr.se mr.pval
#>    <chr>       <chr>          <chr>      <chr>            <dbl>   <dbl>   <dbl>
#>  1 ieu-a-96    Height         ieu-a-67   Waist circum…   0.416  1.81e-2       0
#>  2 ieu-a-54    Hip circumfer… ieu-a-67   Waist circum…   0.461  1.82e-2       0
#>  3 ieu-a-69    Waist circumf… ieu-a-67   Waist circum…   0.625  4.01e-2       0
#>  4 ukb-a-185   Treatment/med… ieu-a-67   Waist circum…  26.8    1.40e+0       0
#>  5 ieu-a-89    Height         ieu-a-67   Waist circum…   0.402  9.41e-3       0
#>  6 ukb-a-485   Types of phys… ieu-a-67   Waist circum…  -1.82   6.62e-2       0
#>  7 ieu-a-67    Waist circumf… ieu-a-69   Waist circum…   0.840  5.03e-2       0
#>  8 ieu-a-70    Waist circumf… ieu-a-69   Waist circum…   0.541  3.41e-2       0
#>  9 ieu-a-87    Extreme waist… ieu-a-69   Waist circum…   0.0950 2.50e-4       0
#> 10 ukb-a-523   Diagnoses - m… ieu-a-69   Waist circum… -12.5    2.97e-1       0
#> # … with 832 more rows, and 3 more variables: mr.method <chr>,
#> #   mr.selection <chr>, mr.moescore <dbl>
…
endpoint <- "/cypher"
params <- list(query = query)
results_subset <- query_epigraphdb(
                        route = endpoint, 
                        params = params,
                        method = "POST",
                        mode = "table")
results_subset
#> # A tibble: 146 x 10
#>    exposure.trait exposure.id outcome.trait outcome.id   mr.se   mr.b mr.method
#>    <chr>          <chr>       <chr>         <chr>        <dbl>  <dbl> <chr>    
#>  1 Body mass ind… ieu-a-2     Non-cancer i… ukb-a-74   0.00242 0.0346 FE IVW   
#>  2 Body mass ind… ieu-a-2     Hip circumfe… ukb-a-388  0.0266  0.724  Simple m…
#>  3 Body mass ind… ieu-a-2     Waist circum… ukb-a-382  0.0245  0.656  Simple m…
#>  4 Body mass ind… ieu-a-2     Comparative … ukb-a-35   0.00791 0.137  FE IVW   
#>  5 Body mass ind… ieu-a-2     Comparative … ukb-a-34   0.0236  0.366  Simple m…
#>  6 Body mass ind… ieu-a-2     Trunk predic… ukb-a-293  0.0167  0.358  Simple m…
#>  7 Body mass ind… ieu-a-2     Trunk fat-fr… ukb-a-292  0.0177  0.360  Simple m…
#>  8 Body mass ind… ieu-a-2     Trunk fat ma… ukb-a-291  0.0280  0.737  Simple m…
#>  9 Body mass ind… ieu-a-2     Trunk fat pe… ukb-a-290  0.0275  0.527  Weighted…
#> 10 Body mass ind… ieu-a-2     Arm predicte… ukb-a-289  0.0177  0.416  Simple m…
#> # … with 136 more rows, and 3 more variables: mr.selection <chr>,
#> #   mr.pval <dbl>, mr.moescore <dbl>
…
