Meta functionalities of the EpiGraphDB platform • epigraphdb
…
meta_rel_df %>%
  arrange(from_node, to_node) %>%
  mutate(count = format(count, big.mark = ","))
#> # A tibble: 41 × 4
#>    meta_rel                     count        from_node to_node       
#>    <chr>                        <chr>        <chr>     <chr>         
#>  1 MONDO_MAP_EFO                "     2,819" Disease   Efo           
#>  2 MONDO_MAP_UMLS               "     8,247" Disease   LiteratureTerm
#>  3 OPENTARGETS_DRUG_TO_DISEASE  "     2,461" Drug      Disease       
#>  4 CPIC                         "       375" Drug      Gene          
#>  5 OPENTARGETS_DRUG_TO_TARGET   "     6,534" Drug      Gene          
#>  6 EFO_CHILD_OF                 "    43,132" Efo       Efo           
#>  7 GENE_TO_DISEASE              "     5,763" Gene      Disease       
#>  8 XQTL_MULTI_SNP_MR            " 3,015,233" Gene      Gwas          
#>  9 XQTL_SINGLE_SNP_MR_GENE_GWAS " 8,449,779" Gene      Gwas          
#> 10 GENE_TO_PROTEIN              "    19,142" Gene      Protein       
#> # … with 31 more rows
…
